[gd_scene load_steps=3 format=2]

[sub_resource type="GDScript" id=1]
script/source = "extends Area2D
\"\"\"
		Author: EthanLR (Megaguy32)
		This script partially follows Godot documentation's recommended
		coding conventions
		\"\"\"


var hit_value: float = 0
var knockback_vector: Vector2 = Vector2(128, 0) # magnitude and direction of hit
		#Consider seperating magnitude & direction
var countdown_to_destruction: int = 1 #Attack area is around for one frame then is freed. And if you get the reference, nice.


func _ready():
	print_debug(\"hi I, an AttackArea named \" + name + \", am ready.\")
	
func setup(hit_value: float, knockback_vector: Vector2):
	self.hit_value = hit_value
	self.knockback_vector = knockback_vector
	
	
func _process(delta):
	if countdown_to_destruction == 0:
		print_debug(\"hi I, an AttackArea named \" + name + \", am done.\")
		queue_free()
	else:
		countdown_to_destruction -= 1

func _on_AttackArea_body_entered(body):
	print_debug(\"hi I, an AttackArea named \" + name + \", have been entered by a body named \" + body.name + \".\")
	
	\"\"\" The following function is duck typed, I do not make an implementation
			or inheretance or function check because there are objects 
			with different parents that have this function
			\"\"\"
	if body.has_method(\"GetHit\"):
		body.GetHit(hit_value, knockback_vector)
"

[sub_resource type="CircleShape2D" id=2]
radius = 16.0

[node name="AttackArea" type="Area2D"]
script = SubResource( 1 )

[node name="CollisionShape2D" type="CollisionShape2D" parent="."]
shape = SubResource( 2 )
[connection signal="body_entered" from="." to="." method="_on_AttackArea_body_entered"]
