[gd_scene load_steps=4 format=2]

[ext_resource path="res://icon.png" type="Texture" id=1]

[sub_resource type="PhysicsMaterial" id=1]
friction = 0.5
bounce = 0.5

[sub_resource type="CircleShape2D" id=2]
radius = 29.7442

[node name="PhysicsCircle" type="RigidBody2D"]
physics_material_override = SubResource( 1 )
gravity_scale = 2.0

[node name="Sprite3" type="Sprite" parent="."]
texture = ExtResource( 1 )

[node name="CollisionPolygon2D" type="CollisionShape2D" parent="."]
shape = SubResource( 2 )
